\relax 
\providecommand\hyper@newdestlabel[2]{}
\providecommand\HyperFirstAtBeginDocument{\AtBeginDocument}
\HyperFirstAtBeginDocument{\ifx\hyper@anchor\@undefined
\global\let\oldcontentsline\contentsline
\gdef\contentsline#1#2#3#4{\oldcontentsline{#1}{#2}{#3}}
\global\let\oldnewlabel\newlabel
\gdef\newlabel#1#2{\newlabelxx{#1}#2}
\gdef\newlabelxx#1#2#3#4#5#6{\oldnewlabel{#1}{{#2}{#3}}}
\AtEndDocument{\ifx\hyper@anchor\@undefined
\let\contentsline\oldcontentsline
\let\newlabel\oldnewlabel
\fi}
\fi}
\global\let\hyper@last\relax 
\gdef\HyperFirstAtBeginDocument#1{#1}
\providecommand*\HyPL@Entry[1]{}
\providecommand\pbs@newkey[2]{}
\providecommand\pbs@seq@push@cx[2]{}
\providecommand\pbs@at@end@dvi@check{}
\pbs@at@end@dvi@check
\providecommand\mix@newkey[2]{}
\bibstyle{plain}
\pbs@newkey{pbs@last@page}{1}
\HyPL@Entry{0<</S/D>>}
\select@language{english}
\@writefile{toc}{\select@language{english}}
\@writefile{lof}{\select@language{english}}
\@writefile{lot}{\select@language{english}}
\pbs@newkey{pbs@last@page}{2}
\@writefile{toc}{\contentsline {section}{\numberline { \oldstylenums  {1} }Introduction}{2}{section.1}}
\newlabel{eq:Cpk}{{\computerFont   \oldstylenums  {1} |\ \oldstylenums  {1}}{2}{Introduction}{equation.1.1}{}}
\newlabel{eq:Cp}{{\computerFont   \oldstylenums  {1} |\ \oldstylenums  {2}}{2}{Introduction}{equation.1.2}{}}
\newlabel{eq:CpF}{{\computerFont   \oldstylenums  {1} |\ \oldstylenums  {3}}{2}{Introduction}{equation.1.3}{}}
\newlabel{eq:dsH}{{\computerFont   \oldstylenums  {1} |\ \oldstylenums  {4}}{2}{Introduction}{equation.1.4}{}}
\newlabel{eq:dmH}{{\computerFont   \oldstylenums  {1} |\ \oldstylenums  {5}}{2}{Introduction}{equation.1.5}{}}
\@writefile{toc}{\contentsline {section}{\numberline { \oldstylenums  {2} }Experimental}{2}{section.2}}
\pbs@newkey{pbs@last@page}{3}
\@writefile{lof}{\contentsline {figure}{\numberline {\oldstylenums  {1}}{\ignorespaces \oldstylenums  {This sketch of our calorimeter shows the setup we used for our experiments. The dewar container works like a thermos flask and only hardly allows heat excange with the environment. The magnetic stirrer mixes the solution such that temperature changes apply quickly and constantly. The termometer is connected to a computer to collect and store all data electronically. For applying heat to the liquid, a heating probe is used. And to solve certain amounts of salt at certain points of time, the salt cell is used.}\relax }}{3}{figure.caption.2}}
\providecommand*\caption@xref[2]{\@setref\relax\@undefined{#1}}
\newlabel{fig:calorimeter}{{\oldstylenums  {1}}{3}{\oldstylenums {This sketch of our calorimeter shows the setup we used for our experiments. The dewar container works like a thermos flask and only hardly allows heat excange with the environment. The magnetic stirrer mixes the solution such that temperature changes apply quickly and constantly. The termometer is connected to a computer to collect and store all data electronically. For applying heat to the liquid, a heating probe is used. And to solve certain amounts of salt at certain points of time, the salt cell is used.}\relax }{figure.caption.2}{}}
\@writefile{toc}{\contentsline {section}{\numberline { \oldstylenums  {3} }Results \& Discussion}{3}{section.3}}
\@writefile{toc}{\contentsline {subsection}{\numberline { \oldstylenums  { \oldstylenums  {3} .1} }Calibration}{3}{subsection.3.1}}
\citation{praktikum_allgemeine_chemie}
\citation{praktikum_allgemeine_chemie}
\citation{praktikum_allgemeine_chemie}
\pbs@newkey{pbs@last@page}{4}
\newlabel{eq:heatCapacityCalorimeter}{{\computerFont   \oldstylenums  {3} |\ \oldstylenums  {6}}{4}{Calibration}{equation.3.6}{}}
\@writefile{toc}{\contentsline {subsection}{\numberline { \oldstylenums  { \oldstylenums  {3} .2} }Determination of Heat Capacities of ethanol-water-Mixtures}{4}{subsection.3.2}}
\newlabel{sec:8.2.3}{{ \oldstylenums  { \oldstylenums  {3} .2} }{4}{Determination of Heat Capacities of ethanol-water-Mixtures}{subsection.3.2}{}}
\newlabel{eq:heatCapacityEthanol}{{\computerFont   \oldstylenums  {3} |\ \oldstylenums  {7}}{4}{Determination of Heat Capacities of ethanol-water-Mixtures}{equation.3.7}{}}
\citation{praktikum_allgemeine_chemie}
\citation{praktikum_allgemeine_chemie}
\pbs@newkey{pbs@last@page}{5}
\@writefile{lof}{\contentsline {figure}{\numberline {\oldstylenums  {2}}{\ignorespaces All the calculated values of c$_\text  {p}^\text  {sp}$ of ethanol-water-mixtures of our physical chemistry lab class are visible as points with error bars of $\pm $\oldstylenums  {132}, which is the threefold of our calculated uncertanity, resulting of estimated errors on calibration measurements and inaccuracy of instruments. Note that the marked points are the ones we measured. Amongst the values, there is a regression curve which shows the expected maximum, even though the data is pretty unprecise.\relax }}{5}{figure.caption.3}}
\newlabel{fig:8.2.3}{{\oldstylenums  {2}}{5}{All the calculated values of c$_\text {p}^\text {sp}$ of ethanol-water-mixtures of our physical chemistry lab class are visible as points with error bars of $\pm $\oldstylenums {132}, which is the threefold of our calculated uncertanity, resulting of estimated errors on calibration measurements and inaccuracy of instruments. Note that the marked points are the ones we measured. Amongst the values, there is a regression curve which shows the expected maximum, even though the data is pretty unprecise.\relax }{figure.caption.3}{}}
\@writefile{lof}{\contentsline {figure}{\numberline {\oldstylenums  {3}}{\ignorespaces \oldstylenums  {In this example, the four points with the highest difference to the regression curve are now supposed to be wrong results. For comparison, those values have been removed from the plot. It is now visible that the results are much closer to each other and also to the regression curve, even though there is no expected (source \cite  {praktikum_allgemeine_chemie}) visible maximum as in fig. \ref  {fig:8.2.3}.}\relax }}{5}{figure.caption.4}}
\newlabel{fig:8.2.3_b}{{\oldstylenums  {3}}{5}{\oldstylenums {In this example, the four points with the highest difference to the regression curve are now supposed to be wrong results. For comparison, those values have been removed from the plot. It is now visible that the results are much closer to each other and also to the regression curve, even though there is no expected (source \cite {praktikum_allgemeine_chemie}) visible maximum as in fig. \ref {fig:8.2.3}.}\relax }{figure.caption.4}{}}
\citation{enthalpy_of_solution}
\pbs@newkey{pbs@last@page}{6}
\@writefile{toc}{\contentsline {subsection}{\numberline { \oldstylenums  { \oldstylenums  {3} .3} }Determination of Enthalpies of Solution}{6}{subsection.3.3}}
\newlabel{eq:solvationEnthalpy}{{\computerFont   \oldstylenums  {3} |\ \oldstylenums  {8}}{6}{Determination of Enthalpies of Solution}{equation.3.8}{}}
\@writefile{lof}{\contentsline {figure}{\numberline {\oldstylenums  {4}}{\ignorespaces \oldstylenums  {The diagram shows the temperature progress of solubilizing 0.5024 g of NH\textsubscript {4}Cl in 100 mL of water. This progress consumes energy ($\rightarrow $ endothermic), which is shown by a temperature decrease of 0.268 K on the left side of the diagram. In order to calibrate the calculation, the solution was heated for two minutes, which resulted in a temperature gain of 2.155 K.}\relax }}{6}{figure.caption.5}}
\newlabel{fig:8.2.4}{{\caption@xref {fig:8.2.4}{ on input line 205}}{6}{Determination of Enthalpies of Solution}{figure.caption.5}{}}
\@writefile{toc}{\contentsline {subsection}{\numberline { \oldstylenums  { \oldstylenums  {3} .4} }Calorimetric Titration of Vinegar}{6}{subsection.3.4}}
\newlabel{eq:conzentration}{{\computerFont   \oldstylenums  {3} |\ \oldstylenums  {9}}{6}{Calorimetric Titration of Vinegar}{equation.3.9}{}}
\newlabel{eq:conzentration_cal}{{\computerFont   \oldstylenums  {3} |\ \oldstylenums  {10}}{6}{Calorimetric Titration of Vinegar}{equation.3.10}{}}
\citation{kressi}
\pbs@newkey{pbs@last@page}{7}
\newlabel{fig:8.2.5_met1}{{5(a)}{7}{Subfigure 5(a)}{subfigure.5.1}{}}
\newlabel{sub@fig:8.2.5_met1}{{(a)}{7}{Subfigure 5(a)\relax }{subfigure.5.1}{}}
\newlabel{fig:8.2.5_met2}{{5(b)}{7}{Subfigure 5(b)}{subfigure.5.2}{}}
\newlabel{sub@fig:8.2.5_met2}{{(b)}{7}{Subfigure 5(b)\relax }{subfigure.5.2}{}}
\@writefile{lof}{\contentsline {figure}{\numberline {\oldstylenums  {5}}{\ignorespaces \oldstylenums  {The diagrams show the titration of vinegar ({\normalfont  <<}Kressi{\normalfont  >>}) with 1 M caustic soda (NaOH). We can see an almost constant increase of the temperature as long as there is still some acetic acid (AcOH) reacting (which results in a negative $\Delta _\text  {r}$H $\rightarrow $ exothermic). After the equivalence point (maximum) was reached, the added NaOH just reacts with water which does not result in the same amount of heat as before. The comparison between methods 1 (fig. \ref  {fig:8.2.5_met1}) and 2 (fig. \ref  {fig:8.2.5_met2}) shows that it is much easier to determine a maximum using method \oldstylenums  {1} because in method \oldstylenums  {2}, a wavelike continuation which makes it more difficult to locate the top appears. Nevertheless, both variants seem to function pretty well.}\relax }}{7}{figure.caption.6}}
\newlabel{fig:8.2.5}{{\oldstylenums  {5}}{7}{\oldstylenums {The diagrams show the titration of vinegar (\quotes {Kressi}) with 1 M caustic soda (NaOH). We can see an almost constant increase of the temperature as long as there is still some acetic acid (AcOH) reacting (which results in a negative $\Delta _\text {r}$H $\rightarrow $ exothermic). After the equivalence point (maximum) was reached, the added NaOH just reacts with water which does not result in the same amount of heat as before. The comparison between methods 1 (fig. \ref {fig:8.2.5_met1}) and 2 (fig. \ref {fig:8.2.5_met2}) shows that it is much easier to determine a maximum using method \oldstylenums {1} because in method \oldstylenums {2}, a wavelike continuation which makes it more difficult to locate the top appears. Nevertheless, both variants seem to function pretty well.}\relax }{figure.caption.6}{}}
\@writefile{toc}{\contentsline {subsection}{\numberline { \oldstylenums  { \oldstylenums  {3} .5} }Determination of the melting enthalpy of ice}{7}{subsection.3.5}}
\newlabel{eq:melting_enthalpy}{{\computerFont   \oldstylenums  {3} |\ \oldstylenums  {11}}{7}{Determination of the melting enthalpy of ice}{equation.3.11}{}}
\pbs@newkey{pbs@last@page}{8}
\newlabel{fig:8.2.6_water}{{6(a)}{8}{Subfigure 6(a)}{subfigure.6.1}{}}
\newlabel{sub@fig:8.2.6_water}{{(a)}{8}{Subfigure 6(a)\relax }{subfigure.6.1}{}}
\newlabel{fig:8.2.6_ice}{{6(b)}{8}{Subfigure 6(b)}{subfigure.6.2}{}}
\newlabel{sub@fig:8.2.6_ice}{{(b)}{8}{Subfigure 6(b)\relax }{subfigure.6.2}{}}
\@writefile{lof}{\contentsline {figure}{\numberline {\oldstylenums  {6}}{\ignorespaces \oldstylenums  {The thermograms show the development of the temperature while adding 12.19 g of ice water (fig. \ref  {fig:8.2.6_water}) and 12.24 g of ice (fig. \ref  {fig:8.2.6_ice}) to 100 mL of water at room temperature. The difference between the final enthalpies corresponds to the melting enthalpy for ice, which is the process consuming energy (heat) in the right diagram.}\relax }}{8}{figure.caption.7}}
\newlabel{fig:8.2.6}{{\oldstylenums  {6}}{8}{\oldstylenums {The thermograms show the development of the temperature while adding 12.19 g of ice water (fig. \ref {fig:8.2.6_water}) and 12.24 g of ice (fig. \ref {fig:8.2.6_ice}) to 100 mL of water at room temperature. The difference between the final enthalpies corresponds to the melting enthalpy for ice, which is the process consuming energy (heat) in the right diagram.}\relax }{figure.caption.7}{}}
\bibdata{literature.bib}
\bibcite{kressi}{1}
\bibcite{praktikum_allgemeine_chemie}{2}
\bibcite{enthalpy_of_solution}{3}
\pbs@newkey{pbs@last@page}{9}
\pbs@newkey{pbs@last@page}{10}
\@writefile{toc}{\contentsline {section}{\numberline { \oldstylenums  {4} }Appendix}{10}{section.4}}
\@writefile{toc}{\contentsline {subsection}{\numberline { \oldstylenums  { \oldstylenums  {4} .1} }Exercises}{10}{subsection.4.1}}
\@writefile{toc}{\contentsline {subsubsection}{\numberline { \oldstylenums  { \oldstylenums  { \oldstylenums  {4} .1} .1} }Ex. 1}{10}{subsubsection.4.1.1}}
\@writefile{toc}{\contentsline {subsubsection}{\numberline { \oldstylenums  { \oldstylenums  { \oldstylenums  {4} .1} .2} }Ex. 2}{10}{subsubsection.4.1.2}}
\@writefile{toc}{\contentsline {subsubsection}{\numberline { \oldstylenums  { \oldstylenums  { \oldstylenums  {4} .1} .3} }Ex. 3}{10}{subsubsection.4.1.3}}
\@writefile{toc}{\contentsline {subsubsection}{\numberline { \oldstylenums  { \oldstylenums  { \oldstylenums  {4} .1} .4} }Ex. 4}{10}{subsubsection.4.1.4}}
\@writefile{toc}{\contentsline {subsubsection}{\numberline { \oldstylenums  { \oldstylenums  { \oldstylenums  {4} .1} .5} }Ex. 5}{10}{subsubsection.4.1.5}}
\pbs@newkey{pbs@last@page}{11}
\@writefile{toc}{\contentsline {subsection}{\numberline { \oldstylenums  { \oldstylenums  {4} .2} }Additional Material}{11}{subsection.4.2}}
\@writefile{lof}{\contentsline {figure}{\numberline {\oldstylenums  {7}}{\ignorespaces \oldstylenums  {On the right, you can see a typical thermogram used for calibration of the calorimeter in which 100 mL of deionized water were heated for 120 seconds. In this very example, the temperature change was $\Delta $T = 2.265 K.}\relax }}{11}{figure.caption.8}}
\newlabel{fig:8.2.2}{{\oldstylenums  {7}}{11}{\oldstylenums {On the right, you can see a typical thermogram used for calibration of the calorimeter in which 100 mL of deionized water were heated for 120 seconds. In this very example, the temperature change was $\Delta $T = 2.265 K.}\relax }{figure.caption.8}{}}
\@writefile{lof}{\contentsline {subfigure}{\numberline{(a)}{\ignorespaces {\computerFont Titration with method 1: 40 mL NaOH during 3 minutes were added to achieve a continous flow.}}}{11}{figure.caption.8}}
\@writefile{lof}{\contentsline {subfigure}{\numberline{(b)}{\ignorespaces {\computerFont Titration with method 2: \oldstylenums {portions of 2 mL of NaOH were added every 20 seconds which results in a step-like diagram.}}}}{11}{figure.caption.8}}
\@writefile{lof}{\contentsline {subfigure}{\numberline{(a)}{\ignorespaces {\computerFont Temperature development with ice water added: The temperature change is relatively low compared to fig. \ref {fig:8.2.6_ice}.}}}{11}{figure.caption.8}}
\@writefile{lof}{\contentsline {subfigure}{\numberline{(b)}{\ignorespaces {\computerFont Temperature development with ice water added: The temperature change is relatively high compared to fig. \ref {fig:8.2.6_water}.}}}{11}{figure.caption.8}}
\pbs@newkey{pbs@last@page}{12}
\@writefile{toc}{\contentsline {subsection}{\numberline { \oldstylenums  { \oldstylenums  {4} .3} }Source Code}{12}{subsection.4.3}}
\@writefile{lol}{\contentsline {lstlisting}{\numberline {1}\oldstylenums  {include file for most diagrams}}{12}{lstlisting.1}}
\@writefile{lol}{\contentsline {lstlisting}{\numberline {2}\oldstylenums  {calculation of the heat capacity of EtOH and Water, 8.2.3 (processing-script, java-based)}}{12}{lstlisting.2}}
\pbs@newkey{pbs@last@page}{13}
\@writefile{lol}{\contentsline {lstlisting}{\numberline {3}\oldstylenums  {Diagram for 8.2.3 - specific heat capacities of ethanol-water-mixtures}}{13}{lstlisting.3}}
\@writefile{lol}{\contentsline {lstlisting}{\numberline {4}\oldstylenums  {Python-Script for 8.2.4 to calculate the enthalpy of solution for NH\textsubscript {4}Cl}}{13}{lstlisting.4}}
\pbs@newkey{pbs@last@page}{14}
\@writefile{lol}{\contentsline {lstlisting}{\numberline {5}\oldstylenums  {thermogram for 8.2.4}}{14}{lstlisting.5}}
\@writefile{lol}{\contentsline {lstlisting}{\numberline {6}\oldstylenums  {thermogram method 1, 8.2.5}}{14}{lstlisting.6}}
\@writefile{lol}{\contentsline {lstlisting}{\numberline {7}\oldstylenums  {thermogram method 2, 8.2.5}}{14}{lstlisting.7}}
\@writefile{lol}{\contentsline {lstlisting}{\numberline {8}\oldstylenums  {thermogram melting enthalpy, 8.2.6}}{14}{lstlisting.8}}
\pbs@newkey{pbs@last@page}{15}
\@writefile{lol}{\contentsline {lstlisting}{\numberline {9}\oldstylenums  {thermogram melting enthalpy, 8.2.6}}{15}{lstlisting.9}}
\@writefile{lol}{\contentsline {lstlisting}{\numberline {10}\oldstylenums  {Python-Script for 8.2.6 to calculate every combination of $\Delta _mH_i^{sp}$}}{15}{lstlisting.10}}
\@writefile{lol}{\contentsline {lstlisting}{\numberline {11}\oldstylenums  {Script for calculating 95\%-confidence intervals. One would just modify the values and run the script.}}{15}{lstlisting.11}}
\pbs@newkey{pbs@last@page}{16}
\newlabel{LastPage}{{}{16}{}{page.16}{}}
\xdef\lastpage@lastpage{16}
\xdef\lastpage@lastpageHy{16}
\ttl@finishall
