##TITLE  Ivan Schneider, Alexander Schoch
##SAMPLE  HCl, NaOH
##SOLVENT  Water
##COMMENT  
##Channel  Left
##Time step  1.0
##Scale Factor  50
##x-data  y-data
0.000  22.22574
1.000  22.22557
2.000  22.22552
3.000  22.22584
4.000  22.22575
5.000  22.22504
6.000  22.22544
7.000  22.22553
8.000  22.22549
9.000  22.22538
10.000  22.22518
11.000  22.22529
12.000  22.22500
13.000  22.22491
14.000  22.22488
15.000  22.22479
16.000  22.22508
17.000  22.22499
18.000  22.22432
19.000  22.22454
20.000  22.22471
21.000  22.22427
22.000  22.22432
23.000  22.22429
24.000  22.22386
25.000  22.22419
26.000  22.22429
27.000  22.22388
28.000  22.22363
29.000  22.22398
30.000  22.22402
31.000  22.22350
32.000  22.22323
33.000  22.22324
34.000  22.22374
35.000  22.22292
36.000  22.22305
37.000  22.22330
38.000  22.22277
39.000  22.22305
40.000  22.22264
41.000  22.22258
42.000  22.22746
43.000  22.24743
44.000  22.27565
45.000  22.30704
46.000  22.33427
47.000  22.36433
48.000  22.38894
49.000  22.42277
50.000  22.46989
51.000  22.48406
52.000  22.50676
53.000  22.55093
54.000  22.56799
55.000  22.58794
56.000  22.60835
57.000  22.63546
58.000  22.65839
59.000  22.68393
60.000  22.70559
61.000  22.73156
62.000  22.75841
63.000  22.78944
64.000  22.81692
65.000  22.83683
66.000  22.86128
67.000  22.88395
68.000  22.92071
69.000  22.93887
70.000  22.96391
71.000  22.98811
72.000  23.01514
73.000  23.03756
74.000  23.05960
75.000  23.09721
76.000  23.11242
77.000  23.12650
78.000  23.14791
79.000  23.17048
80.000  23.19234
81.000  23.22069
82.000  23.24176
83.000  23.26503
84.000  23.29304
85.000  23.30507
86.000  23.33281
87.000  23.37385
88.000  23.38797
89.000  23.40578
90.000  23.42740
91.000  23.46110
92.000  23.47564
93.000  23.49447
94.000  23.51250
95.000  23.53368
96.000  23.55488
97.000  23.58145
98.000  23.59630
99.000  23.62155
100.000  23.64575
101.000  23.66831
102.000  23.68770
103.000  23.70870
104.000  23.73017
105.000  23.74739
106.000  23.76615
107.000  23.79419
108.000  23.82236
109.000  23.83897
110.000  23.86652
111.000  23.88609
112.000  23.90419
113.000  23.91704
114.000  23.93646
115.000  23.95939
116.000  23.98646
117.000  23.99955
118.000  24.01418
119.000  24.03219
120.000  24.05831
121.000  24.07648
122.000  24.09903
123.000  24.11652
124.000  24.13272
125.000  24.15557
126.000  24.17546
127.000  24.18902
128.000  24.20830
129.000  24.22603
130.000  24.24595
131.000  24.26648
132.000  24.28977
133.000  24.30957
134.000  24.32540
135.000  24.34556
136.000  24.35827
137.000  24.37734
138.000  24.39291
139.000  24.41523
140.000  24.43587
141.000  24.44960
142.000  24.46566
143.000  24.48913
144.000  24.50449
145.000  24.51913
146.000  24.54605
147.000  24.56308
148.000  24.57467
149.000  24.59455
150.000  24.60510
151.000  24.62541
152.000  24.64386
153.000  24.65916
154.000  24.68084
155.000  24.69792
156.000  24.70984
157.000  24.72348
158.000  24.74096
159.000  24.74880
160.000  24.74763
161.000  24.74567
162.000  24.74056
163.000  24.73560
164.000  24.73079
165.000  24.72633
166.000  24.72191
167.000  24.71855
168.000  24.71403
169.000  24.70896
170.000  24.70560
171.000  24.70072
172.000  24.69759
173.000  24.69434
174.000  24.69113
175.000  24.68516
176.000  24.68255
177.000  24.67913
178.000  24.67548
179.000  24.67092
180.000  24.66768
181.000  24.66390
182.000  24.65976
183.000  24.65698
184.000  24.65419
185.000  24.65095
186.000  24.64702
187.000  24.64249
188.000  24.63954
189.000  24.63633
190.000  24.63303
191.000  24.62974
192.000  24.62622
193.000  24.62252
194.000  24.61782
195.000  24.61377
196.000  24.61124
197.000  24.60054
198.000  24.60177
199.000  24.60020
200.000  24.59752
201.000  24.59379
202.000  24.59152
203.000  24.58801
204.000  24.58482
205.000  24.58207
206.000  24.57803
207.000  24.57467
208.000  24.57162
209.000  24.56721
210.000  24.56425
211.000  24.56141
212.000  24.55734
213.000  24.55243
214.000  24.54905
215.000  24.54626
216.000  24.54413
217.000  24.54186
218.000  24.53890
219.000  24.53565
220.000  24.53185
221.000  24.52884
222.000  24.52790
223.000  24.52765
224.000  24.52697
225.000  24.52700
226.000  24.52665
227.000  24.52662
228.000  24.52655
229.000  24.52608
230.000  24.52589
231.000  24.52589
232.000  24.52560
233.000  24.52573
234.000  24.52514
235.000  24.52487
236.000  24.52436
237.000  24.52475
238.000  24.52417
239.000  24.52389
240.000  24.52356
241.000  24.52297
242.000  24.52312
243.000  24.52268
244.000  24.52277
245.000  24.52254
246.000  24.52204
247.000  24.52171
248.000  24.52162
249.000  24.52141
250.000  24.52107
251.000  24.52047
252.000  24.52067
253.000  24.52014
254.000  24.51981
255.000  24.51977
256.000  24.51944
257.000  24.51951
258.000  24.51888
259.000  24.51874
260.000  24.51853
261.000  24.51827
262.000  24.51781
263.000  24.51757
264.000  24.51736
265.000  24.51762
266.000  24.51685
267.000  24.51638
268.000  24.51659
269.000  24.51618
270.000  24.51581
271.000  24.51563
272.000  24.51483
273.000  24.51526
274.000  24.51491
275.000  24.51440
276.000  24.51426
277.000  24.51392
278.000  24.51412
279.000  24.51388
280.000  24.51384
281.000  24.51331
282.000  24.51272
283.000  24.51270
284.000  24.51256
285.000  24.51248
286.000  24.51216
287.000  24.51162
288.000  24.51155
289.000  24.51150
290.000  24.51110
291.000  24.51096
292.000  24.51108
293.000  24.51058
