\relax 
\providecommand\hyper@newdestlabel[2]{}
\providecommand\zref@newlabel[2]{}
\providecommand\HyperFirstAtBeginDocument{\AtBeginDocument}
\HyperFirstAtBeginDocument{\ifx\hyper@anchor\@undefined
\global\let\oldcontentsline\contentsline
\gdef\contentsline#1#2#3#4{\oldcontentsline{#1}{#2}{#3}}
\global\let\oldnewlabel\newlabel
\gdef\newlabel#1#2{\newlabelxx{#1}#2}
\gdef\newlabelxx#1#2#3#4#5#6{\oldnewlabel{#1}{{#2}{#3}}}
\AtEndDocument{\ifx\hyper@anchor\@undefined
\let\contentsline\oldcontentsline
\let\newlabel\oldnewlabel
\fi}
\fi}
\global\let\hyper@last\relax 
\gdef\HyperFirstAtBeginDocument#1{#1}
\providecommand*\HyPL@Entry[1]{}
\providecommand\AtEndDvi@Check{}
\AtEndDvi@Check
\bibstyle{plain}
\HyPL@Entry{0<</S/D>>}
\select@language{english}
\@writefile{toc}{\select@language{english}}
\@writefile{lof}{\select@language{english}}
\@writefile{lot}{\select@language{english}}
\citation{tabelle}
\citation{tabelle}
\citation{NaCl}
\@writefile{toc}{\contentsline {section}{\numberline { \oldstylenums  {1} }Introduction}{2}{section.1}}
\@writefile{toc}{\contentsline {section}{\numberline { \oldstylenums  {2} }Experimental}{2}{section.2}}
\@writefile{toc}{\contentsline {subsection}{\numberline { \oldstylenums  { \oldstylenums  {2} .1} }Dependance on Temperature}{2}{subsection.2.1}}
\@writefile{toc}{\contentsline {subsection}{\numberline { \oldstylenums  { \oldstylenums  {2} .2} }Dependance on Solvent}{3}{subsection.2.2}}
\@writefile{toc}{\contentsline {section}{\numberline { \oldstylenums  {3} }Results \& Discussion}{3}{section.3}}
\newlabel{sec:resultsDiscussion}{{ \oldstylenums  {3} }{3}{Results \& Discussion}{section.3}{}}
\@writefile{toc}{\contentsline {subsection}{\numberline { \oldstylenums  { \oldstylenums  {3} .1} }Dependance on Temperature}{3}{subsection.3.1}}
\newlabel{eq:temperaturabhaengigkeit2}{{\computerFont   \oldstylenums  {3} |\ \oldstylenums  {1}}{3}{Dependance on Temperature}{equation.3.1}{}}
\providecommand*\caption@xref[2]{\@setref\relax\@undefined{#1}}
\newlabel{fig:9.2.2_1}{{1(a)}{4}{Subfigure 1(a)}{subfigure.1.1}{}}
\newlabel{sub@fig:9.2.2_1}{{(a)}{4}{Subfigure 1(a)\relax }{subfigure.1.1}{}}
\newlabel{fig:9.2.2_2}{{1(b)}{4}{Subfigure 1(b)}{subfigure.1.2}{}}
\newlabel{sub@fig:9.2.2_2}{{(b)}{4}{Subfigure 1(b)\relax }{subfigure.1.2}{}}
\@writefile{lof}{\contentsline {figure}{\numberline {\oldstylenums  {1}}{\ignorespaces \oldstylenums  {In the figure left (fig. \ref  {fig:9.2.2_1}) is the data linearized using formula (\ref  {eq:temperaturabhaengigkeit2}). From the slope of the regression line we can calculate the melting enthalpy of potassium hydrogen titrate. The dependence on temperature of solubility is depicted on the right (fig. \ref  {fig:9.2.2_2}) as a function of temperature.}\relax }}{4}{figure.caption.2}}
\newlabel{fig:9.2.2}{{\oldstylenums  {1}}{4}{\oldstylenums {In the figure left (fig. \ref {fig:9.2.2_1}) is the data linearized using formula (\ref {eq:temperaturabhaengigkeit2}). From the slope of the regression line we can calculate the melting enthalpy of potassium hydrogen titrate. The dependence on temperature of solubility is depicted on the right (fig. \ref {fig:9.2.2_2}) as a function of temperature.}\relax }{figure.caption.2}{}}
\@writefile{lof}{\contentsline {subfigure}{\numberline{(a)}{\ignorespaces {\computerFont Linearized diagram of the dependance on temperature.}}}{4}{figure.caption.2}}
\@writefile{lof}{\contentsline {subfigure}{\numberline{(b)}{\ignorespaces {\computerFont {\normalfont <<}Normal{\normalfont >>} diagram of the dependance on temperature.}}}{4}{figure.caption.2}}
\@writefile{toc}{\contentsline {subsection}{\numberline { \oldstylenums  { \oldstylenums  {3} .2} }Dependance on Solvent}{4}{subsection.3.2}}
\newlabel{eq:titration}{{\computerFont   \oldstylenums  {3} |\ \oldstylenums  {2}}{4}{Dependance on Solvent}{equation.3.2}{}}
\@writefile{lof}{\contentsline {figure}{\numberline {\oldstylenums  {2}}{\ignorespaces \oldstylenums  {On the left side, you can see our measurements about the dependance of the solubility of NaCl on the consistency of the ethanol-water mixture. Because two titrations were made for each solution, the avarage of those values was taken. It is visible that those values do have the expected decreasing trend, but the measurements are extremely imprecise and do not show any kind of correlation. }\relax }}{5}{figure.caption.3}}
\newlabel{fig:9.2.3_loesungsmittelabhaengigkeit}{{\oldstylenums  {2}}{5}{\oldstylenums {On the left side, you can see our measurements about the dependance of the solubility of NaCl on the consistency of the ethanol-water mixture. Because two titrations were made for each solution, the avarage of those values was taken. It is visible that those values do have the expected decreasing trend, but the measurements are extremely imprecise and do not show any kind of correlation. }\relax }{figure.caption.3}{}}
\@writefile{lof}{\contentsline {figure}{\numberline {\oldstylenums  {3}}{\ignorespaces \oldstylenums  {In this diagram, exactly the same as above is visible. There is only one difference: The two values described in section \ref  {sec:resultsDiscussion} were strictly ignored. With those values, we get an almost linear dependance, which is visualized by the regression line.}\relax }}{5}{figure.caption.4}}
\newlabel{fig:9.2.3_loesungsmittelabhaengigkeit2}{{\oldstylenums  {3}}{5}{\oldstylenums {In this diagram, exactly the same as above is visible. There is only one difference: The two values described in section \ref {sec:resultsDiscussion} were strictly ignored. With those values, we get an almost linear dependance, which is visualized by the regression line.}\relax }{figure.caption.4}{}}
\@writefile{toc}{\contentsline {subsubsection}{\numberline { \oldstylenums  { \oldstylenums  { \oldstylenums  {3} .2} .1} }Uncertanity Estimation}{6}{subsubsection.3.2.1}}
\newlabel{eq:unsicherheitsabschaetzung}{{\computerFont   \oldstylenums  {3} |\ \oldstylenums  {3}}{6}{Uncertanity Estimation}{equation.3.3}{}}
\newlabel{eq:unsicherheitsabschaetzung_vol}{{\computerFont   \oldstylenums  {3} |\ \oldstylenums  {4}}{6}{Uncertanity Estimation}{equation.3.4}{}}
\bibdata{literature.bib}
\bibcite{NaCl}{1}
\bibcite{tabelle}{2}
\@writefile{toc}{\contentsline {subsection}{\numberline { \oldstylenums  { \oldstylenums  {3} .3} }Source Code}{8}{subsection.3.3}}
\@writefile{lol}{\contentsline {lstlisting}{\numberline {1}\oldstylenums  {R-Script for diagram \ref  {fig:9.2.3_loesungsmittelabhaengigkeit}}}{8}{lstlisting.1}}
\@writefile{lol}{\contentsline {lstlisting}{\numberline {2}\oldstylenums  {R-Script for diagram \ref  {fig:9.2.3_loesungsmittelabhaengigkeit2}}}{9}{lstlisting.2}}
\@writefile{lol}{\contentsline {lstlisting}{\numberline {3}\oldstylenums  {R-Script for diagram \ref  {fig:9.2.2}}}{9}{lstlisting.3}}
\newlabel{LastPage}{{}{10}{}{page.10}{}}
\xdef\lastpage@lastpage{10}
\xdef\lastpage@lastpageHy{10}
\ttl@finishall
\zref@newlabel{LastPage}{\default{ \protect \oldstylenums  { \protect \oldstylenums  {3} .3} }\page{10}\abspage{10}}
