\BOOKMARK [1][-]{section.1}{Introduction}{}% 1
\BOOKMARK [1][-]{section.2}{Experimental}{}% 2
\BOOKMARK [2][-]{subsection.2.1}{Dependance\040on\040Temperature}{section.2}% 3
\BOOKMARK [2][-]{subsection.2.2}{Dependance\040on\040Solvent}{section.2}% 4
\BOOKMARK [1][-]{section.3}{Results\040&\040Discussion}{}% 5
\BOOKMARK [2][-]{subsection.3.1}{Dependance\040on\040Temperature}{section.3}% 6
\BOOKMARK [2][-]{subsection.3.2}{Dependance\040on\040Solvent}{section.3}% 7
\BOOKMARK [3][-]{subsubsection.3.2.1}{Uncertanity\040Estimation}{subsection.3.2}% 8
\BOOKMARK [2][-]{subsection.3.3}{Source\040Code}{section.3}% 9
