This is BibTeX, Version 0.99d (TeX Live 2016)
Capacity: max_strings=100000, hash_size=100000, hash_prime=85009
The top-level auxiliary file: Leitfaehigkeit.aux
The style file: plain.bst
Database file #1: literature.bib.bib
You've used 1 entry,
            2118 wiz_defined-function locations,
            503 strings with 4138 characters,
and the built_in function-call counts, 243 in all, are:
= -- 21
> -- 7
< -- 0
+ -- 3
- -- 2
* -- 12
:= -- 48
add.period$ -- 3
call.type$ -- 1
change.case$ -- 4
chr.to.int$ -- 0
cite$ -- 1
duplicate$ -- 12
empty$ -- 23
format.name$ -- 2
if$ -- 49
int.to.chr$ -- 0
int.to.str$ -- 1
missing$ -- 2
newline$ -- 8
num.names$ -- 2
pop$ -- 7
preamble$ -- 1
purify$ -- 3
quote$ -- 0
skip$ -- 6
stack$ -- 0
substring$ -- 5
swap$ -- 1
text.length$ -- 0
text.prefix$ -- 0
top$ -- 0
type$ -- 2
warning$ -- 0
while$ -- 2
width$ -- 2
write$ -- 13
