\relax 
\providecommand\hyper@newdestlabel[2]{}
\providecommand\zref@newlabel[2]{}
\providecommand\HyperFirstAtBeginDocument{\AtBeginDocument}
\HyperFirstAtBeginDocument{\ifx\hyper@anchor\@undefined
\global\let\oldcontentsline\contentsline
\gdef\contentsline#1#2#3#4{\oldcontentsline{#1}{#2}{#3}}
\global\let\oldnewlabel\newlabel
\gdef\newlabel#1#2{\newlabelxx{#1}#2}
\gdef\newlabelxx#1#2#3#4#5#6{\oldnewlabel{#1}{{#2}{#3}}}
\AtEndDocument{\ifx\hyper@anchor\@undefined
\let\contentsline\oldcontentsline
\let\newlabel\oldnewlabel
\fi}
\fi}
\global\let\hyper@last\relax 
\gdef\HyperFirstAtBeginDocument#1{#1}
\providecommand*\HyPL@Entry[1]{}
\providecommand\AtEndDvi@Check{}
\AtEndDvi@Check
\bibstyle{plain}
\HyPL@Entry{0<</S/D>>}
\select@language{english}
\@writefile{toc}{\select@language{english}}
\@writefile{lof}{\select@language{english}}
\@writefile{lot}{\select@language{english}}
\@writefile{toc}{\contentsline {section}{\numberline { \oldstylenums  {1} }Introduction}{2}{section.1}}
\newlabel{eq:dependanceOfTemp}{{\computerFont   \oldstylenums  {1} |\ \oldstylenums  {1}}{2}{Introduction}{equation.1.1}{}}
\newlabel{eq:temperaturabhaengigkeit_2}{{\computerFont   \oldstylenums  {1} |\ \oldstylenums  {2}}{2}{Introduction}{equation.1.2}{}}
\newlabel{eq:kappa}{{\computerFont   \oldstylenums  {1} |\ \oldstylenums  {3}}{2}{Introduction}{equation.1.3}{}}
\@writefile{toc}{\contentsline {section}{\numberline { \oldstylenums  {2} }Experimental}{2}{section.2}}
\newlabel{sec:solPrep}{{ \oldstylenums  {2} }{2}{Experimental}{section.2}{}}
\@writefile{lof}{\contentsline {figure}{\numberline {\oldstylenums  {1}}{\ignorespaces \oldstylenums  {On the right side, you can see a sketch of the setting we used for the experiments. We also used a beaker in exchange of the {\normalfont  <<}thermoregulatable container{\normalfont  >>}.}\relax }}{3}{figure.caption.2}}
\providecommand*\caption@xref[2]{\@setref\relax\@undefined{#1}}
\newlabel{fig:versuchsaufbau}{{\oldstylenums  {1}}{3}{\oldstylenums {On the right side, you can see a sketch of the setting we used for the experiments. We also used a beaker in exchange of the \quotes {thermoregulatable container}.}\relax }{figure.caption.2}{}}
\@writefile{toc}{\contentsline {section}{\numberline { \oldstylenums  {3} }Results \& Discussion}{3}{section.3}}
\@writefile{toc}{\contentsline {subsection}{\numberline { \oldstylenums  { \oldstylenums  {3} .1} }Conductivity of {\normalfont  <<}Water{\normalfont  >>}}{3}{subsection.3.1}}
\newlabel{sec:conductivityOfWater}{{ \oldstylenums  { \oldstylenums  {3} .1} }{3}{Conductivity of \quotes {Water}}{subsection.3.1}{}}
\pgfsyspdfmark {pgfid1}{17473337}{16751425}
\pgfsyspdfmark {pgfid2}{17473337}{15801154}
\newlabel{eq:ionsInWater}{{\computerFont   \oldstylenums  {3} |\ \oldstylenums  {4}}{3}{Conductivity of \quotes {Water}}{equation.3.4}{}}
\@writefile{toc}{\contentsline {subsection}{\numberline { \oldstylenums  { \oldstylenums  {3} .2} }Dependance on Temperature}{3}{subsection.3.2}}
\newlabel{sec:dependanceOnTemp}{{ \oldstylenums  { \oldstylenums  {3} .2} }{3}{Dependance on Temperature}{subsection.3.2}{}}
\citation{praktikum_allgemeine_chemie}
\newlabel{eq:temperaturabhaengigkeit}{{\computerFont   \oldstylenums  {3} |\ \oldstylenums  {5}}{4}{Dependance on Temperature}{equation.3.5}{}}
\@writefile{lof}{\contentsline {figure}{\numberline {\oldstylenums  {2}}{\ignorespaces \oldstylenums  {On the right side, you can see the linear dependance of temperature T and conductivity $\kappa $ for 0.1 M CaCl\textsubscript {2}. The line represents a regression which is used to calculate the conductivity at every imaginable temperature.}\relax }}{4}{figure.caption.3}}
\newlabel{fig:7.2.3_temperaturabhaengigkeit}{{\oldstylenums  {2}}{4}{\oldstylenums {On the right side, you can see the linear dependance of temperature T and conductivity $\kappa $ for 0.1 M CaCl\tief {2}. The line represents a regression which is used to calculate the conductivity at every imaginable temperature.}\relax }{figure.caption.3}{}}
\@writefile{toc}{\contentsline {subsection}{\numberline { \oldstylenums  { \oldstylenums  {3} .3} }Molar Conductivity of Electrolytes}{4}{subsection.3.3}}
\newlabel{sec:molarCondOfElec}{{ \oldstylenums  { \oldstylenums  {3} .3} }{4}{Molar Conductivity of Electrolytes}{subsection.3.3}{}}
\newlabel{eq:7.2.4_molarConducitivity}{{\computerFont   \oldstylenums  {3} |\ \oldstylenums  {6}}{4}{Molar Conductivity of Electrolytes}{equation.3.6}{}}
\@writefile{toc}{\contentsline {subsection}{\numberline { \oldstylenums  { \oldstylenums  {3} .4} }Dependance on Concentration}{5}{subsection.3.4}}
\newlabel{dependanceOnConc}{{ \oldstylenums  { \oldstylenums  {3} .4} }{5}{Dependance on Concentration}{subsection.3.4}{}}
\@writefile{lof}{\contentsline {figure}{\numberline {\oldstylenums  {3}}{\ignorespaces \oldstylenums  {In that diagram, you can see the corrlation of conductivity of deionized water titrated with 0.0100 M CaCl\textsubscript {2} with its concentration (dashed line with empty points). It is visible that this curve has an oblique asymptote, regarding infinitely growing concentration values. To get that straigth line, we just have to subtract the intrinsic conductivity of deionized water, which was in our case 9.44 $\mu $S cm\textsuperscript {-1}. Using that operation, a linear graph (solid line with filled points) appears. This phoenomenon occurs because the influence of the intrinsic conductivity decreases with highter concentrations and, therefore, higher conductivities compared to the one of water.}\relax }}{6}{figure.caption.4}}
\newlabel{fig:7.2.5_konzentrationsabhaengigkeit1}{{\oldstylenums  {3}}{6}{\oldstylenums {In that diagram, you can see the corrlation of conductivity of deionized water titrated with 0.0100 M CaCl\tief {2} with its concentration (dashed line with empty points). It is visible that this curve has an oblique asymptote, regarding infinitely growing concentration values. To get that straigth line, we just have to subtract the intrinsic conductivity of deionized water, which was in our case 9.44 $\mu $S cm\hoch {-1}. Using that operation, a linear graph (solid line with filled points) appears. This phoenomenon occurs because the influence of the intrinsic conductivity decreases with highter concentrations and, therefore, higher conductivities compared to the one of water.}\relax }{figure.caption.4}{}}
\@writefile{lof}{\contentsline {figure}{\numberline {\oldstylenums  {4}}{\ignorespaces \oldstylenums  {The diagram shows the interesting dependance of the molar conductivity (eq. \ref  {eq:7.2.4_molarConducitivity}) on the square root of the concentration, which results in the dashed curve with empty points. After again subtracting the intrinsic conductivity of deion. water in the calculation of the molar conductivity, another very prodigious phoenomenon appears: The data results in a straight line, which is represented by the solid line and the filled points. This correlation between $\Lambda $ and $\sqrt  {\text  {c}}$ was detected by Friedrich Kohlrausch, which is the reason why this dependance is also called {\normalfont  <<}Square Root Law by Kohlrausch{\normalfont  >>}. The molar limit of conductivity of CaCl\textsubscript {2} is $\Lambda _0$ = 196 S cm\textsuperscript {2} mol\textsuperscript {-1}}\relax }}{6}{figure.caption.5}}
\newlabel{fig:7.2.5_konzentrationsabhaengigkeit2}{{\oldstylenums  {4}}{6}{\oldstylenums {The diagram shows the interesting dependance of the molar conductivity (eq. \ref {eq:7.2.4_molarConducitivity}) on the square root of the concentration, which results in the dashed curve with empty points. After again subtracting the intrinsic conductivity of deion. water in the calculation of the molar conductivity, another very prodigious phoenomenon appears: The data results in a straight line, which is represented by the solid line and the filled points. This correlation between $\Lambda $ and $\sqrt {\text {c}}$ was detected by Friedrich Kohlrausch, which is the reason why this dependance is also called \quotes {Square Root Law by Kohlrausch}. The molar limit of conductivity of CaCl\tief {2} is $\Lambda _0$ = 196 S cm\hoch {2} mol\hoch {-1}}\relax }{figure.capt